﻿<?xml version="1.0" encoding="utf-8"?>
<svg version="1.1" xmlns:xlink="http://www.w3.org/1999/xlink" width="150px" height="150px" xmlns="http://www.w3.org/2000/svg">
  <g transform="matrix(1 0 0 1 -520 -740 )">
    <path d="M 595 740  C 637 740  670 773  670 815  C 670 857  637 890  595 890  C 553 890  520 857  520 815  C 520 773  553 740  595 740  Z " fill-rule="nonzero" fill="#f44336" stroke="none" />
  </g>
</svg>